{
    "itemCategories": [
        {
            "DisplayName": "Coffee",
            "items": [
                {
                    "DisplayName": "Hot Coffee",
                    "Value": "00",
                    "Attributes": {
                        "Type": {
                            "Regular": "46",
                            "Decaf": "47"
                        },
                        "Size": {
                            "Properties": {
                                "increments": false
                            },
                            "Values": {
                                "Small": "01",
                                "Medium": "02",
                                "Large": "03",
                                "Extra Large": "04"
                            }
                        },
                        "Flavors": {
                            "Properties": {
                                "increments": true
                            },
                            "Values": {
                                "Black": "05",
                                "French Vanilla": "06",
                                "Hazelnut": "07",
                                "Raspberry": "08",
                                "Coconut": "09",
                                "Toasted Almond": "10",
                                "Cinnamon": "11",
                                "Blueberry": "12",
                                "Caramel Swirl": "13",
                                "Mocha Swirl": "14"
                            }
                        },
                        "Dairy": {
                            "Properties": {
                                "increments": false
                            },
                            "Values": {
                                "Milk": "15",
                                "Skim": "16",
                                "Cream": "17"
                            },
                            "Quantities": {
                                "Light": "18",
                                "Dark": "19",
                                "Extra Light": "20",
                                "Extra Dark": "21",
                                "Half Cup": "22"
                            }
                        },
                        "Sugar": {
                            "Properties": {
                                "increments": true
                            },
                            "Values": {
                                "Sugar": "23",
                                "Equal": "24",
                                "Sweet n Low": "25",
                                "Splenda": "26"
                            }
                        },
                        "Espresso": {
                            "Properties": {
                                "increments": true
                            },
                            "Values": {
                                "Espresso shots": "27"
                            }
                        }
                    }
                }
            ]
        }
    ]
}